<svg xmlns="http://www.w3.org/2000/svg">
<mask id="m">
<rect width="100%" height="100%" rx="4" fill="#fff"/>
</mask>
<rect width="100%" height="100%" stroke="#999" fill="#AAF" stroke-width="2" mask="url(#m)" rx="4"/></svg>